{
  "version": 2,
  "projects": {
    "linder": {
      "root": "apps/linder",
      "sourceRoot": "apps/linder/src",
      "projectType": "application",
      "targets": {
        "build": {
          "executor": "@nrwl/node:build",
          "outputs": ["{options.outputPath}"],
          "options": {
            "outputPath": "dist/apps/linder",
            "main": "apps/linder/src/main.ts",
            "tsConfig": "apps/linder/tsconfig.app.json",
            "assets": ["apps/linder/src/assets"]
          },
          "configurations": {
            "production": {
              "optimization": true,
              "extractLicenses": true,
              "inspect": false,
              "fileReplacements": [
                {
                  "replace": "apps/linder/src/environments/environment.ts",
                  "with": "apps/linder/src/environments/environment.prod.ts"
                }
              ]
            }
          }
        },
        "serve": {
          "executor": "@nrwl/node:execute",
          "options": {
            "buildTarget": "linder:build"
          }
        },
        "lint": {
          "executor": "@nrwl/linter:eslint",
          "outputs": ["{options.outputFile}"],
          "options": {
            "lintFilePatterns": ["apps/linder/**/*.ts"]
          }
        },
        "test": {
          "executor": "@nrwl/jest:jest",
          "outputs": ["coverage/apps/linder"],
          "options": {
            "jestConfig": "apps/linder/jest.config.js",
            "passWithNoTests": true
          }
        }
      }
    }
  },
  "cli": {
    "defaultCollection": "@nrwl/express"
  },
  "defaultProject": "linder"
}
